{
    "uuid": "b9ba775f-6558-4386-9fb4-bdb42b8452c4",
    "taskType": {
        "id": 5,
        "name": "Odstranitev invazivk (ITRV)",
        "nameEn": "Removal of invasive plants"
    },
    "dateFrom": "2024-04-24T00:00:00",
    "dateTo": "2024-04-24T00:00:00",
    "note": null,
    "fields": [
        {
            "fieldUuid": "f258b3a1-ae7c-4ff5-acaa-fd5d51b845bd",
            "fieldIdentifier": "123321",
            "fieldName": "field1"
        }
    ]
}